{
    "KPlugin": {
        "Authors": [
            {
                "Name": "Miha Čančula",
                "Name[ca@valencia]": "Miha Čančula",
                "Name[ca]": "Miha Čančula",
                "Name[cs]": "Miha Čančula",
                "Name[de]": "Miha Čančula",
                "Name[el]": "Miha Čančula",
                "Name[en_GB]": "Miha Čančula",
                "Name[es]": "Miha Čančula",
                "Name[et]": "Miha Čančula",
                "Name[eu]": "Miha Čančula",
                "Name[fr]": "Miha Čančula",
                "Name[gl]": "Miha Čančula",
                "Name[it]": "Miha Čančula",
                "Name[ka]": "მიჰა ჩანჩულა",
                "Name[ko]": "Miha Čančula",
                "Name[nl]": "Miha Čančula",
                "Name[nn]": "Miha Čančula",
                "Name[pl]": "Miha Čančula",
                "Name[pt]": "Miha Čančula",
                "Name[pt_BR]": "Miha Čančula",
                "Name[ro]": "Miha Čančula",
                "Name[ru]": "Miha Čančula",
                "Name[sk]": "Miha Čančula",
                "Name[sl]": "Miha Čančula",
                "Name[sv]": "Miha Čančula",
                "Name[tr]": "Miha Čančula",
                "Name[uk]": "Miha Čančula",
                "Name[x-test]": "xxMiha Čančulaxx",
                "Name[zh_CN]": "Miha Čančula",
                "Name[zh_TW]": "Miha Čančula"
            }
        ],
        "Category": "Testing",
        "Description": "Finds and runs PHPUnit tests.",
        "Description[ca@valencia]": "Busca i executa les proves de PHPUnit.",
        "Description[ca]": "Cerca i executa les proves del PHPUnit.",
        "Description[cs]": "Hledá a spouští testy PHPUnit.",
        "Description[de]": "Sucht und führt PHPUnit-Tests aus.",
        "Description[el]": "Βρίσκει και εκτελεί PHPUnit δοκιμές.",
        "Description[en_GB]": "Finds and runs PHPUnit tests.",
        "Description[es]": "Encuentra y ejecuta pruebas PHPUnit.",
        "Description[et]": "PHPUnit testide leidmine ja käitamine.",
        "Description[eu]": "PHPUnit probak aurkitu eta exekutatzen ditu.",
        "Description[fr]": "Trouve et exécute des tests « PHPUnit ».",
        "Description[gl]": "Atopa e executa probas de PHPUnit.",
        "Description[it]": "Trova ed esegue i test PHPUnit.",
        "Description[ka]": "პოულობს და უშვებს PHPUnit ერთეულებს.",
        "Description[ko]": "PHPUnit 테스트를 찾아서 실행합니다.",
        "Description[nl]": "Testen van PHPUnit vinden en uitvoeren.",
        "Description[nn]": "Finn og køyr PHPUnit-testar.",
        "Description[pl]": "Znajduje i uruchamia testy PHPUnit.",
        "Description[pt]": "Procura e executa os testes do PHPUnit.",
        "Description[pt_BR]": "Procura e executa os testes do PHPUnit.",
        "Description[ro]": "Găsește și rulează teste PHPUnit.",
        "Description[ru]": "Находит и запускает тесты PHPUnit",
        "Description[sk]": "Nájde a spustí PHPUnit testy.",
        "Description[sl]": "Najde in zažene preizkuse PHPUnit.",
        "Description[sv]": "Söker efter och kör PHPUnit-tester.",
        "Description[tr]": "PHPUnit sınamalarını bulur ve çalıştırır.",
        "Description[uk]": "Знаходить і запускає перевірки PHPUnit.",
        "Description[x-test]": "xxFinds and runs PHPUnit tests.xx",
        "Description[zh_CN]": "查找并运行 PHPUnit 测试",
        "Description[zh_TW]": "尋找並執行 PHPUnit 測試。",
        "Icon": "application-x-php",
        "Id": "kdevphpunitprovider",
        "License": "GPL",
        "Name": "PHPUnit Integration",
        "Name[ca@valencia]": "Integració de PHPUnit",
        "Name[ca]": "Integració del PHPUnit",
        "Name[cs]": "Integrace PHPUnit",
        "Name[de]": "PHPUnit-Integration",
        "Name[el]": "Ενσωμάτωση PHPUnit",
        "Name[en_GB]": "PHPUnit Integration",
        "Name[es]": "Integración de PHPUnit",
        "Name[et]": "PHPUniti lõimimine",
        "Name[eu]": "PHPUnit integrazioa",
        "Name[fr]": "Intégration de « PHPUnit »",
        "Name[gl]": "Integración con PHPUnit",
        "Name[it]": "Integrazione PHPUnit",
        "Name[ka]": "PHPUnit -ის ინტეგრაცია",
        "Name[ko]": "PHPUnit 통합",
        "Name[nl]": "Integratie van PHPUnit",
        "Name[nn]": "PHPUnit-integrering",
        "Name[pl]": "Integracja PHPUnit",
        "Name[pt]": "Integração com o PHPUnit",
        "Name[pt_BR]": "Integração com o PHPUnit",
        "Name[ro]": "Integrare PHPUnit",
        "Name[ru]": "Интеграция PHPUnit",
        "Name[sk]": "Integrácia PHPUnit",
        "Name[sl]": "Podpora PHPUnit",
        "Name[sv]": "Integrering av PHPUnit",
        "Name[tr]": "PHPUnit Tümleştirmesi",
        "Name[uk]": "Інтеграція з PHPUnit",
        "Name[x-test]": "xxPHPUnit Integrationxx",
        "Name[zh_CN]": "PHPUnit 集成",
        "Name[zh_TW]": "PHPUnit 整合",
        "ServiceTypes": [
            "KDevelop/Plugin"
        ]
    },
    "X-KDevelop-Category": "Global",
    "X-KDevelop-IRequired": [
        "org.kdevelop.PHPSupport"
    ],
    "X-KDevelop-Interfaces": [
        "org.kdevelop.ITestProvider"
    ],
    "X-KDevelop-Mode": "GUI"
}
